%YAML 1.1
%TAG !u! tag:unity3d.com,2011:
--- !u!78 &1
TagManager:
  serializedVersion: 2
  tags:
  - Coin
  layers:
  - Default
  - TransparentFX
  - Ignore Raycast
  - 
  - Water
  - UI
  - 
  - 
  - Ground
  - BackGround
  - FrontGround
  - Coin
  - 
  - 
  - 
  - 
  - 
  - 
  - 
  - 
  - 
  - 
  - 
  - 
  - 
  - 
  - 
  - 
  - 
  - 
  - 
  - 
  m_SortingLayers:
  - name: Default
    uniqueID: 0
    locked: 0
  - name: BackGround 3
    uniqueID: 3039862179
    locked: 0
  - name: BackGround 2
    uniqueID: 3354754683
    locked: 0
  - name: BackGround 1
    uniqueID: 3817841215
    locked: 0
  - name: BackGround
    uniqueID: 614127635
    locked: 0
  - name: Ground
    uniqueID: 2275994835
    locked: 0
  - name: FrontGround
    uniqueID: 2124190605
    locked: 0
